{
  "pagination": {
    "first": "/stores/v0/operations?fromPostedDate=2016-01-01&toPostedDate=2016-01-01&store.id=cucumbercontract1",
    "next": "/stores/v0/operations?fromPostedDate=2016-01-01&toPostedDate=2016-01-01&storeId=cucumbercontract1&paginationKey=1&pageSize=6",
    "page": 0,
    "totalPages": 2,
    "totalElements": 8,
    "pageSize": 6
  },
  "data": [
    {
        "number": "472100150628095519511615",
        "feeAmount": {
            "amount": 0.72,
            "currency": "EUR"
        },
        "id": "472100150628095519511615",
        "description": "",
        "paymentMethod": {
            "id": "CARD"
        },
        "availableDate": "2016-01-01",
        "store": {
            "id": "cucumbercontract1",
            "link": {
                "rel": "stores",
                "href": "stores/v0/stores/cucumbercontract1"
            }
        },
        "operationType": {
            "id": "SALE"
        },
        "postedDate": "2016-01-01T20:40:00.000Z",
        "card": {
            "country": "ES",
            "brandAssociation": {
                "id": "VISA"
            },
            "cardType": {
                "id": "CREDIT_CARD"
            },
            "secure3d": true,
            "pointOfSale": "17364590723476243",
            "remittance": "11223344aabbccdd",
            "pan": "123456****9876"
        },
        "localAmount": {
            "amount": 10,
            "currency": "EUR"
        },
        "paymentChannel": {
            "id": "ONLINE_POS"
        }
    },
    {
        "number": "",
        "id": "332100150628095519512377",
        "description": "",
        "paymentMethod": {
            "id": "CARD"
        },
        "availableDate": "2016-01-01",
        "store": {
            "id": "cucumbercontract1",
            "link": {
                "rel": "stores",
                "href": "stores/v0/stores/cucumbercontract1"
            }
        },
        "operationType": {
            "id": "REFUND"
        },
        "postedDate": "2016-01-01T19:35:00.000Z",
        "card": {
            "country": "ES",
            "brandAssociation": {
                "id": "MASTER_CARD"
            },
            "cardType": {
                "id": "CREDIT_CARD"
            },
            "secure3d": false,
            "pointOfSale": "17364590723476243",
            "remittance": "11223344aabbccdd",
            "pan": "123456****5678"
        },
        "localAmount": {
            "amount": 1.02,
            "currency": "EUR"
        },
        "paymentChannel": {
            "id": "PHYSICAL_POS"
        }
    },
    {
        "number": "",
        "feeAmount": {
            "amount": 3,
            "currency": "EUR"
        },
        "id": "116700150628095519519911",
        "description": "",
        "paymentMethod": {
            "id": "CARD"
        },
        "availableDate": "2016-01-01",
        "store": {
            "id": "cucumbercontract1",
            "link": {
                "rel": "stores",
                "href": "stores/v0/stores/cucumbercontract1"
            }
        },
        "operationType": {
            "id": "SALE"
        },
        "postedDate": "2016-01-01T15:21:00.000Z",
        "card": {
            "country": "ES",
            "brandAssociation": {
                "id": "VISA"
            },
            "cardType": {
                "id": "CREDIT_CARD"
            },
            "secure3d": false,
            "pointOfSale": "17364590723476243",
            "remittance": "88776655ggddhh112233",
            "pan": "123456****1234"
        },
        "localAmount": {
            "amount": 1572.2,
            "currency": "EUR"
        },
        "paymentChannel": {
            "id": "SMARTPAY"
        }
    }
  ]
}