<svg version="1.1" id="bbva" 
	xmlns="http://www.w3.org/2000/svg"
	xmlns:xlink="http://www.w3.org/1999/xlink" x="0px" y="0px"
 	width="220px" height="50px"
 	viewBox="0 0 220 50" enable-background="new 0 0 220 50" xml:space="preserve">
		<g>
			<path fill="#FFFFFF" d="M61.041,27.49l2.835-9.46l2.87,9.46H61.041z M68.366,16.38c-0.574-1.702-0.896-2.103-2.52-2.103h-3.962
				l-6.342,20.727h3.23l1.362-4.464h7.534l1.37,4.464h5.619L68.366,16.38z"/>
			<path fill="#FFFFFF" d="M30.248,32.242V16.974h2.664c1.284,0,2.39,1.059,2.39,2.336c0,0.45-0.084,0.871-0.523,1.501l-1.726,2.59
				c1.806,0.434,3.013,1.809,3.013,4.381c0,3.127-1.87,4.459-4.343,4.459H30.248L30.248,32.242z M36.954,22.4l1.017-1.5
				c2.139-3.177,0.667-6.627-3.566-6.627h-9.037v20.739h8.714C41.747,35.012,44.041,26.086,36.954,22.4"/>
			<path fill="#FFFFFF" d="M14.175,32.242h-1.462V16.974h2.65c1.286,0,2.401,1.059,2.401,2.336c0,0.45-0.083,0.871-0.529,1.501
				l-1.737,2.59c1.812,0.434,3.019,1.809,3.019,4.381C18.517,30.91,16.649,32.242,14.175,32.242 M19.406,22.4l1.01-1.5
				c2.148-3.177,0.678-6.627-3.568-6.627H7.823v20.739h8.716C24.194,35.012,26.511,26.086,19.406,22.4"/>
			<path fill="#FFFFFF" d="M46.073,16.974c-0.738-2.336-1.112-2.701-2.529-2.701h-3.659l6.782,20.732h4.982l6.318-20.731h-3.28
				l-4.678,15.747L46.073,16.974z"/>
			<path fill="#FFFFFF" d="M7.823,14.273h8.716"/>
		</g>
		<g>
			<path fill="#FFFFFF" d="M86.895,34.937V14.559v-0.361h6.014c1.023,0,1.995,0.088,2.865,0.331l0,0
				c0.868,0.219,1.649,0.595,2.28,1.14l0,0c0.427,0.354,0.778,0.801,1.034,1.338l0,0c0.347,0.693,0.531,1.548,0.531,2.533l0,0
				c0,1.068-0.237,1.926-0.656,2.623l0,0c-0.409,0.686-1.015,1.185-1.684,1.565l0,0c-0.143,0.084-0.289,0.158-0.443,0.224l0,0
				c0.343,0.112,0.669,0.237,0.991,0.397l0,0c0.627,0.289,1.193,0.701,1.641,1.231l0,0c0.3,0.351,0.547,0.756,0.743,1.248l0,0
				c0.247,0.632,0.383,1.369,0.383,2.251l0,0c0,1.138-0.24,2.099-0.689,2.916l0,0c-0.443,0.804-1.083,1.443-1.892,1.904l0,0
				c-0.523,0.311-1.122,0.543-1.789,0.706l0,0c-0.857,0.224-1.822,0.331-2.853,0.331l0,0H86.895L86.895,34.937z M93.332,32.945
				c0.842,0,1.599-0.091,2.264-0.296l0,0c0.656-0.195,1.216-0.493,1.647-0.897l0,0c0.278-0.265,0.515-0.58,0.683-0.945l0,0
				c0.234-0.485,0.364-1.082,0.364-1.79l0,0c0-0.823-0.156-1.47-0.446-1.992l0,0c-0.289-0.522-0.708-0.933-1.275-1.239l0,0
				c-0.37-0.194-0.797-0.364-1.296-0.473l0,0c-0.663-0.164-1.423-0.235-2.28-0.235l0,0h-3.866v7.868H93.332L93.332,32.945z
				 M92.823,23.092c0.742,0,1.417-0.076,2.019-0.232l0,0c0.609-0.166,1.122-0.422,1.513-0.766l0,0c0.259-0.228,0.49-0.498,0.651-0.837
				l0,0c0.22-0.441,0.345-0.979,0.345-1.667l0,0c0-0.769-0.157-1.359-0.424-1.822l0,0c-0.277-0.451-0.657-0.781-1.148-1.027l0,0
				c-0.324-0.178-0.7-0.306-1.107-0.395l0,0c-0.542-0.111-1.146-0.169-1.79-0.169l0,0h-3.754v6.915H92.823L92.823,23.092z"/>
			<g>
				<path fill="#FFFFFF" d="M114.307,21.634c-0.19-0.447-0.457-0.828-0.793-1.143c-0.477-0.469-1.098-0.811-1.824-1.016
					c-0.702-0.201-1.51-0.289-2.381-0.289c-2.974,0.017-4.644,0.878-5.73,1.497c0.803,1.698,1.654,1.282,2.752,0.811
					c0.843-0.363,1.815-0.514,2.84-0.514c0.47,0.001,0.988,0.11,1.491,0.214c0.296,0.08,0.564,0.189,0.784,0.319
					c0.358,0.225,0.612,0.5,0.808,0.859c0.189,0.361,0.294,0.838,0.294,1.45v2.219c-1.124-0.249-2.256-0.362-3.544-0.362
					c-0.903,0-1.729,0.086-2.498,0.268c-0.561,0.14-1.068,0.329-1.556,0.577c-0.694,0.381-1.263,0.896-1.667,1.543
					c-0.398,0.66-0.602,1.436-0.602,2.342c0,0.734,0.13,1.422,0.374,2.004c0.386,0.869,1.047,1.558,1.867,1.998
					c0.834,0.451,1.809,0.676,2.912,0.676c0,0,0,0,0.003,0c1.27,0,2.276-0.235,3.14-0.639c0.589-0.287,1.101-0.639,1.571-1.057
					c0.01,0.203,0.025,0.37,0.05,0.525c0.022,0.17,0.065,0.321,0.142,0.459c0.051,0.103,0.117,0.205,0.207,0.282
					c0.137,0.11,0.293,0.185,0.453,0.223c0.16,0.044,0.348,0.057,0.543,0.057h0.752V23.731
					C114.694,22.924,114.561,22.233,114.307,21.634z M112.547,31.06c-0.546,0.632-1.123,1.169-1.798,1.538
					c-0.712,0.396-1.572,0.633-2.722,0.633c-0.465,0-0.899-0.053-1.298-0.168c-0.286-0.078-0.541-0.199-0.772-0.349
					c-0.333-0.216-0.601-0.511-0.798-0.903c-0.197-0.4-0.308-0.896-0.308-1.516c0-0.532,0.106-0.947,0.308-1.291
					c0.155-0.265,0.343-0.486,0.587-0.701c0.357-0.294,0.833-0.504,1.412-0.656c0.557-0.147,1.206-0.218,1.935-0.218
					c1.277,0,2.408,0.167,3.456,0.396L112.547,31.06L112.547,31.06z"/>
			</g>
			<path fill="#FFFFFF" d="M128.625,34.937V23.672c0-0.634-0.091-1.1-0.254-1.449l0,0c-0.159-0.347-0.369-0.578-0.635-0.759l0,0
				c-0.182-0.105-0.395-0.197-0.625-0.257l0,0c-0.327-0.077-0.695-0.106-1.092-0.106l0,0c-1.034,0-2.052,0.282-3.033,0.736l0,0
				c-0.912,0.432-1.797,0.995-2.585,1.596l0,0v11.502h-2.151V19.35h1.021c0.109,0.01,0.209,0.011,0.313,0.023l0,0
				c0.103,0.012,0.21,0.046,0.318,0.107l0,0c0.071,0.041,0.136,0.089,0.185,0.149l0,0c0.076,0.081,0.137,0.181,0.173,0.279l0,0
				c0.047,0.144,0.087,0.296,0.107,0.457l0,0c0.024,0.229,0.032,0.49,0.032,0.827l0,0v0.167c0.714-0.528,1.508-0.999,2.404-1.385l0,0
				c1.132-0.482,2.388-0.788,3.771-0.788l0,0c0.615,0,1.209,0.066,1.762,0.242l0,0c0.547,0.179,1.055,0.472,1.457,0.934l0,0
				c0.268,0.297,0.48,0.664,0.657,1.077l0,0c0.22,0.581,0.337,1.263,0.337,2.079l0,0v11.418H128.625L128.625,34.937z"/>
			<path fill="#FFFFFF" d="M150.244,33.845c-1.155-0.803-2.034-1.975-2.541-3.434l0,0c-0.344-0.981-0.522-2.074-0.522-3.284l0,0
				c0-1.795,0.405-3.372,1.148-4.641l0,0c0.745-1.264,1.833-2.208,3.164-2.768l0,0c0.896-0.352,1.878-0.532,2.96-0.532l0,0
				c1.619-0.006,3.059,0.416,4.211,1.234l0,0c1.162,0.79,2.035,1.963,2.553,3.43l0,0c0.335,0.966,0.509,2.075,0.509,3.274l0,0
				c0,1.809-0.395,3.387-1.152,4.645l0,0c-0.734,1.258-1.825,2.197-3.151,2.738l0,0c-0.902,0.357-1.898,0.553-2.97,0.553l0,0l0,0l0,0
				C152.843,35.062,151.408,34.633,150.244,33.845L150.244,33.845z M151.445,21.934c-0.787,0.588-1.387,1.452-1.743,2.577l0,0
				c-0.241,0.761-0.361,1.632-0.361,2.616l0,0c0,1.496,0.282,2.714,0.788,3.664l0,0c0.521,0.945,1.248,1.623,2.175,2.012l0,0
				c0.622,0.265,1.338,0.406,2.148,0.406l0,0c1.2,0,2.205-0.311,3.001-0.891l0,0c0.784-0.582,1.379-1.427,1.742-2.564l0,0
				c0.229-0.751,0.355-1.635,0.355-2.627l0,0l0,0c0-1.466-0.28-2.694-0.803-3.641l0,0c-0.505-0.961-1.229-1.648-2.166-2.057l0,0
				c-0.613-0.266-1.333-0.402-2.13-0.402l0,0C153.242,21.026,152.235,21.334,151.445,21.934L151.445,21.934z"/>
			<path fill="#FFFFFF" d="M183.426,34.937V23.575c0-0.596-0.077-1.035-0.21-1.376l0,0c-0.139-0.333-0.316-0.555-0.557-0.73l0,0
				c-0.167-0.105-0.359-0.195-0.581-0.257l0,0c-0.296-0.075-0.652-0.11-1.059-0.11l0,0c-0.985,0-1.885,0.268-2.734,0.693l0,0
				c-0.793,0.403-1.547,0.935-2.263,1.506l0,0v11.635h-2.155V23.576c0-0.59-0.084-1.033-0.228-1.376l0,0
				c-0.14-0.327-0.327-0.553-0.571-0.73l0,0c-0.162-0.105-0.346-0.195-0.568-0.257l0,0c-0.293-0.074-0.63-0.11-1.004-0.11l0,0
				c-1.029,0-1.932,0.265-2.787,0.691l0,0c-0.803,0.401-1.551,0.938-2.278,1.526l0,0v11.617h-2.145V19.351h1.015
				c0.105,0.009,0.209,0.01,0.32,0.022l0,0c0.112,0.013,0.213,0.046,0.328,0.108l0,0c0.068,0.031,0.131,0.089,0.184,0.149l0,0
				c0.086,0.081,0.139,0.181,0.178,0.279l0,0c0.041,0.144,0.074,0.296,0.086,0.461l0,0c0.031,0.225,0.034,0.488,0.034,0.823l0,0v0.03
				c0.602-0.433,1.296-0.862,2.061-1.229l0,0c1.03-0.482,2.216-0.807,3.513-0.807l0,0c0.643,0,1.271,0.089,1.843,0.325l0,0
				c0.584,0.234,1.099,0.624,1.483,1.14l0,0c0.154,0.215,0.288,0.462,0.393,0.73l0,0c0.689-0.539,1.467-1.028,2.336-1.428l0,0
				c1.044-0.465,2.219-0.767,3.474-0.767l0,0c0.604,0,1.188,0.078,1.72,0.26l0,0c0.52,0.186,1.004,0.493,1.387,0.92l0,0
				c0.254,0.277,0.465,0.614,0.62,1l0,0c0.196,0.525,0.304,1.117,0.304,1.809l0,0v11.761H183.426L183.426,34.937z"/>
			<path fill="#FFFFFF" d="M145.608,20.797c-0.804,1.698-1.572,1.141-2.669,0.668l0,0c-0.586-0.248-1.354-0.416-2.359-0.416l0,0
				c-1.186,0.003-2.196,0.311-3.006,0.896l0,0c-0.816,0.583-1.438,1.438-1.805,2.557l0,0c-0.255,0.751-0.395,1.612-0.395,2.596l0,0
				c0,1.113,0.165,2.092,0.457,2.906l0,0c0.306,0.82,0.734,1.473,1.281,1.976l0,0c0.375,0.337,0.787,0.603,1.262,0.802l0,0
				c0.643,0.264,1.362,0.398,2.205,0.398l0,0c1.104,0,1.947-0.245,2.585-0.557c1.062-0.551,1.79-1.178,2.712,0.459
				c-0.391,0.371-1.047,0.878-1.745,1.211c-0.104,0.049-0.214,0.097-0.326,0.143c-0.866,0.362-1.964,0.627-3.297,0.627l0,0
				c-0.005,0-0.005,0-0.005,0l0,0c-1.693,0-3.142-0.438-4.309-1.238l0,0c-1.164-0.816-2.015-1.987-2.51-3.457l0,0
				c-0.322-0.977-0.487-2.082-0.487-3.27l0,0c-0.003-1.818,0.416-3.396,1.187-4.653l0,0c0.768-1.251,1.887-2.182,3.238-2.731l0,0
				c0.896-0.346,1.905-0.526,2.98-0.526l0,0C141.219,19.215,143.416,19.018,145.608,20.797z"/>
			<g>
				<path fill="#FFFFFF" d="M200.943,23.252c-0.225-0.689-0.533-1.291-0.918-1.817c-0.572-0.763-1.31-1.333-2.172-1.722
					c-0.863-0.354-1.854-0.526-2.904-0.526c-1.003,0-1.938,0.186-2.791,0.559c-1.254,0.561-2.312,1.514-3.042,2.793
					c-0.722,1.269-1.122,2.843-1.122,4.65c0,1.17,0.153,2.258,0.473,3.229c0.475,1.446,1.308,2.613,2.473,3.416
					c1.152,0.797,2.639,1.229,4.373,1.229c0,0,0,0,0.004,0c1.39,0,2.517-0.225,3.438-0.554c1.474-0.555,2.227-1.233,2.592-1.63
					c-1.005-1.461-1.576-0.877-2.736-0.339c-0.68,0.337-1.984,0.62-3.155,0.62c-0.897,0-1.675-0.132-2.321-0.382
					c-0.49-0.183-0.918-0.438-1.285-0.761c-0.539-0.483-0.971-1.109-1.248-1.916c-0.258-0.715-0.399-1.564-0.426-2.556h11.213v-0.353
					c0-0.004,0-0.043,0-0.094c0.002-0.131,0.019-0.375,0.019-0.61C201.404,25.253,201.254,24.181,200.943,23.252z M190.234,25.734
					c0.097-0.715,0.262-1.338,0.487-1.894c0.404-0.964,0.979-1.669,1.686-2.138c0.72-0.48,1.56-0.71,2.542-0.71
					c0.648,0,1.248,0.087,1.756,0.268c0.379,0.142,0.727,0.332,1.029,0.593c0.451,0.383,0.812,0.891,1.078,1.598
					c0.221,0.618,0.379,1.359,0.432,2.283L190.234,25.734L190.234,25.734z"/>
			</g>
			<path fill="#FFFFFF" d="M210.574,19.248c-1.137-0.002-2.141,0.35-3.001,0.885l0,0c-0.562,0.344-1.068,0.762-1.517,1.208l0,0l0,0
				c0-0.373-0.009-0.664-0.045-0.901l0,0c-0.012-0.187-0.039-0.337-0.09-0.487l0,0c-0.038-0.098-0.086-0.2-0.164-0.297l0,0
				c-0.055-0.057-0.117-0.113-0.186-0.156l0,0c-0.104-0.065-0.214-0.106-0.332-0.12l0,0c-0.1-0.013-0.201-0.015-0.309-0.023h-1.027
				v15.586l0,0h2.152V23.756l0,0c0.754-0.891,1.452-1.444,1.932-1.745c0.016-0.01,0.033-0.02,0.049-0.03
				c0.869-0.549,1.566-0.702,2.12-0.755c0.997-0.095,1.667-0.227,1.766-1.781C211.521,19.325,211.062,19.252,210.574,19.248z"/>
		</g>
	</svg>