{
  "template": {
    "familyPath": "cells-template-zones",
    "tag": "cells-template-zones",
    "properties": {
      "disableEdgeSwipe": true,
      "headerFixed": true
    }
  },
  "components": [
    {
      "zone": "app__main",
      "type": "UI",
      "familyPath": "../elements/register-page",
      "tag": "register-page",
      "properties": {
        "cellsConnections": {
          "in": {
            "dm-example-channel": {
              "bind": "propertyUser"
            }
          },
          "out": {
            "foobar-channel": {
              "bind": "home-event",
              "link": {
                "page": "login"
              }
            }
          },
          "params": {
            "propertyForUseId": "idForUseInAnotherPage"
          }
        }
      }
    },
    {
      "zone": "app__main",
      "type": "DM",
      "familyPath": "../elements/example-data-manager",
      "tag": "example-data-manager",
      "properties": {
        "cellsConnections": {
          "out": {
            "dm-example-channel": {
              "bind": "users-changed"
            }
          }
        }
      }
    }
  ]
}
